<?xml version="1.0" encoding="UTF-8" standalone="no"?><svg xmlns="http://www.w3.org/2000/svg" xmlns:xlink="http://www.w3.org/1999/xlink" contentScriptType="application/ecmascript" contentStyleType="text/css" height="267px" preserveAspectRatio="none" style="width:217px;height:267px;" version="1.1" viewBox="0 0 217 267" width="217px" zoomAndPan="magnify"><defs><filter height="300%" id="f1q3hm3mztm6kx" width="300%" x="-1" y="-1"><feGaussianBlur result="blurOut" stdDeviation="2.0"/><feColorMatrix in="blurOut" result="blurOut2" type="matrix" values="0 0 0 0 0 0 0 0 0 0 0 0 0 0 0 0 0 0 .4 0"/><feOffset dx="4.0" dy="4.0" in="blurOut2" result="blurOut3"/><feBlend in="SourceGraphic" in2="blurOut3" mode="normal"/></filter></defs><g><ellipse cx="106" cy="16" fill="#000000" filter="url(#f1q3hm3mztm6kx)" rx="10" ry="10" style="stroke: none; stroke-width: 1.0;"/><rect fill="#000000" filter="url(#f1q3hm3mztm6kx)" height="8" style="stroke: none; stroke-width: 1.0;" width="80" x="66" y="66"/><rect fill="#FEFECE" filter="url(#f1q3hm3mztm6kx)" height="33.9688" rx="12.5" ry="12.5" style="stroke: #A80036; stroke-width: 1.5;" width="90" x="6" y="114"/><text fill="#000000" font-family="sans-serif" font-size="12" lengthAdjust="spacingAndGlyphs" textLength="62" x="20" y="135.1387">Aktivität 1</text><rect fill="#000000" filter="url(#f1q3hm3mztm6kx)" height="8" style="stroke: none; stroke-width: 1.0;" width="80" x="66" y="188"/><rect fill="#FEFECE" filter="url(#f1q3hm3mztm6kx)" height="33.9688" rx="12.5" ry="12.5" style="stroke: #A80036; stroke-width: 1.5;" width="90" x="116" y="114"/><text fill="#000000" font-family="sans-serif" font-size="12" lengthAdjust="spacingAndGlyphs" textLength="62" x="130" y="135.1387">Aktivität 2</text><ellipse cx="106" cy="246" fill="none" filter="url(#f1q3hm3mztm6kx)" rx="10" ry="10" style="stroke: #000000; stroke-width: 1.0;"/><ellipse cx="106.5" cy="246.5" fill="#000000" rx="6" ry="6" style="stroke: none; stroke-width: 1.0;"/><!--MD5=[6396badacac00578348ddb3cf20ba689]
link start to B1--><path d="M106,26.4117 C106,36.3608 106,51.2162 106,60.7569 " fill="none" id="start-&gt;B1" style="stroke: #A80036; stroke-width: 1.0;"/><polygon fill="#A80036" points="106,65.9191,110,56.9191,106,60.9191,102,56.9191,106,65.9191" style="stroke: #A80036; stroke-width: 1.0;"/><!--MD5=[57df200b3b127119b0f7b619e84f1912]
link B1 to  Aktivit&#228;t 1 --><path d="M102.3913,74.0024 C95.8939,81.2086 81.8062,96.8332 70.0211,109.9038 " fill="none" id="B1-&gt; Aktivit&amp;#228;t 1 " style="stroke: #A80036; stroke-width: 1.0;"/><polygon fill="#A80036" points="66.4486,113.8661,75.4462,109.8606,69.7968,110.1527,69.5047,104.5034,66.4486,113.8661" style="stroke: #A80036; stroke-width: 1.0;"/><!--MD5=[e25d779c76ebeb9b0ecf7a8409066f8d]
link  Aktivit&#228;t 1  to B2--><path d="M66.6137,148.317 C77.094,159.9406 90.4264,174.7275 98.5807,183.7713 " fill="none" id=" Aktivit&amp;#228;t 1 -&gt;B2" style="stroke: #A80036; stroke-width: 1.0;"/><polygon fill="#A80036" points="102.1325,187.7106,99.0766,178.3478,98.7843,183.9971,93.135,183.7049,102.1325,187.7106" style="stroke: #A80036; stroke-width: 1.0;"/><!--MD5=[1b41029555867e519ff34669174da5d0]
link B1 to  Aktivit&#228;t 2 --><path d="M109.6087,74.0024 C116.1061,81.2086 130.1938,96.8332 141.9789,109.9038 " fill="none" id="B1-&gt; Aktivit&amp;#228;t 2 " style="stroke: #A80036; stroke-width: 1.0;"/><polygon fill="#A80036" points="145.5514,113.8661,142.4953,104.5034,142.2032,110.1527,136.5538,109.8606,145.5514,113.8661" style="stroke: #A80036; stroke-width: 1.0;"/><!--MD5=[06c05b510d89fe456af0a3872cf2e223]
link  Aktivit&#228;t 2  to B2--><path d="M145.3863,148.317 C134.906,159.9406 121.5736,174.7275 113.4193,183.7713 " fill="none" id=" Aktivit&amp;#228;t 2 -&gt;B2" style="stroke: #A80036; stroke-width: 1.0;"/><polygon fill="#A80036" points="109.8675,187.7106,118.865,183.7049,113.2157,183.9971,112.9234,178.3478,109.8675,187.7106" style="stroke: #A80036; stroke-width: 1.0;"/><!--MD5=[67dd31f82dae465fe6f080fdaa978b88]
link B2 to end--><path d="M106,196.2373 C106,203.5681 106,218.9582 106,230.6944 " fill="none" id="B2-&gt;end" style="stroke: #A80036; stroke-width: 1.0;"/><polygon fill="#A80036" points="106,235.7875,110,226.7875,106,230.7875,102,226.7875,106,235.7875" style="stroke: #A80036; stroke-width: 1.0;"/><!--MD5=[d90d96deaba2fdd135b6488f108d24e0]
@startuml
(*) - -> ===B1===
- -> " Aktivit&#228;t 1 "
- -> ===B2===
===B1=== - -> " Aktivit&#228;t 2 "
- -> ===B2===
- -> (*)
@enduml

PlantUML version 1.2020.12(Sat Jun 06 12:54:15 CEST 2020)
(GPL source distribution)
Java Runtime: OpenJDK Runtime Environment
JVM: OpenJDK 64-Bit Server VM
Default Encoding: UTF-8
Language: de
Country: DE
--></g></svg>