<?xml version="1.0" encoding="UTF-8" standalone="no"?>
<svg xmlns="http://www.w3.org/2000/svg" xmlns:xlink="http://www.w3.org/1999/xlink" contentScriptType="application/ecmascript" contentStyleType="text/css" height="169px" preserveAspectRatio="none" style="width:194px;height:169px;" version="1.1" viewBox="0 0 194 169" width="194px" zoomAndPan="magnify"><defs><filter height="300%" id="f1twkn30uw5p5m" width="300%" x="-1" y="-1"><feGaussianBlur result="blurOut" stdDeviation="2.0"/><feColorMatrix in="blurOut" result="blurOut2" type="matrix" values="0 0 0 0 0 0 0 0 0 0 0 0 0 0 0 0 0 0 .4 0"/><feOffset dx="4.0" dy="4.0" in="blurOut2" result="blurOut3"/><feBlend in="SourceGraphic" in2="blurOut3" mode="normal"/></filter></defs><g><!--MD5=[cb5b0c5963c3dde83cbfaf747dfbe1c5]
class Angestellter--><rect fill="#FEFECE" filter="url(#f1twkn30uw5p5m)" height="65.5781" id="Angestellter" style="stroke: #A80036; stroke-width: 1.5;" width="113" x="37.5" y="93"/><text fill="#000000" font-family="sans-serif" font-size="12" lengthAdjust="spacingAndGlyphs" textLength="73" x="57.5" y="109.1387">Angestellter</text><line style="stroke: #A80036; stroke-width: 1.5;" x1="38.5" x2="149.5" y1="116.9688" y2="116.9688"/><text fill="#000000" font-family="sans-serif" font-size="11" lengthAdjust="spacingAndGlyphs" textLength="83" x="43.5" y="131.1792">name = String</text><text fill="#000000" font-family="sans-serif" font-size="11" lengthAdjust="spacingAndGlyphs" textLength="101" x="43.5" y="143.9839">vorname = String</text><line style="stroke: #A80036; stroke-width: 1.5;" x1="38.5" x2="149.5" y1="150.5781" y2="150.5781"/><path d="M6,8 L6,33.1328 A0,0 0 0 0 6,33.1328 L90,33.1328 L94,92.9961 L98,33.1328 L182,33.1328 A0,0 0 0 0 182,33.1328 L182,18 L172,8 L6,8 A0,0 0 0 0 6,8 " fill="#FBFB77" filter="url(#f1twkn30uw5p5m)" style="stroke: #A80036; stroke-width: 1.0;"/><path d="M172,8 L172,18 L182,18 L172,8 " fill="#FBFB77" style="stroke: #A80036; stroke-width: 1.0;"/><text fill="#000000" font-family="sans-serif" font-size="13" lengthAdjust="spacingAndGlyphs" textLength="155" x="12" y="25.0669">"die Klasse Angestellter"</text><!--MD5=[8eb9b74d35805a9f1f83d7223723b74d]
@startuml
class Angestellter{
  name = String
  vorname = String
}

note top: "die Klasse Angestellter"


hide Angestellter circle
@enduml

PlantUML version 1.2020.11(Sat May 30 10:13:43 UTC 2020)
(GPL source distribution)
Java Runtime: Java(TM) SE Runtime Environment
JVM: Java HotSpot(TM) 64-Bit Server VM
Default Encoding: UTF-8
Language: en
Country: US
--></g></svg>