<?xml version="1.0" encoding="UTF-8" standalone="no"?>
<svg xmlns="http://www.w3.org/2000/svg" xmlns:xlink="http://www.w3.org/1999/xlink" contentScriptType="application/ecmascript" contentStyleType="text/css" height="63px" preserveAspectRatio="none" style="width:101px;height:63px;" version="1.1" viewBox="0 0 101 63" width="101px" zoomAndPan="magnify"><defs><filter height="300%" id="fvvuv7o0lngdg" width="300%" x="-1" y="-1"><feGaussianBlur result="blurOut" stdDeviation="2.0"/><feColorMatrix in="blurOut" result="blurOut2" type="matrix" values="0 0 0 0 0 0 0 0 0 0 0 0 0 0 0 0 0 0 .4 0"/><feOffset dx="4.0" dy="4.0" in="blurOut2" result="blurOut3"/><feBlend in="SourceGraphic" in2="blurOut3" mode="normal"/></filter></defs><g><!--MD5=[cb98a43e6391b37f057e726553cf2d9e]
class IStream--><rect fill="#FEFECE" filter="url(#fvvuv7o0lngdg)" height="45.9375" id="IStream" style="stroke: #A80036; stroke-width: 1.5;" width="83" x="7" y="7"/><text fill="#000000" font-family="sans-serif" font-size="12" font-style="italic" lengthAdjust="spacingAndGlyphs" textLength="81" x="8" y="23.1387">«Serializable»</text><text fill="#000000" font-family="sans-serif" font-size="12" lengthAdjust="spacingAndGlyphs" textLength="46" x="25.5" y="37.1074">IStream</text><line style="stroke: #A80036; stroke-width: 1.5;" x1="8" x2="89" y1="44.9375" y2="44.9375"/><!--MD5=[fed93709f4171ed77607c041f1197287]
@startuml
class IStream   <<Serializable>> {
String name
}


hide members
hide <<Serializable>> circle
show IStream methods
@enduml

PlantUML version 1.2020.11(Sat May 30 10:13:43 UTC 2020)
(GPL source distribution)
Java Runtime: Java(TM) SE Runtime Environment
JVM: Java HotSpot(TM) 64-Bit Server VM
Default Encoding: UTF-8
Language: en
Country: US
--></g></svg>