<?xml version="1.0" encoding="UTF-8" standalone="no"?><svg xmlns="http://www.w3.org/2000/svg" xmlns:xlink="http://www.w3.org/1999/xlink" contentScriptType="application/ecmascript" contentStyleType="text/css" height="118px" preserveAspectRatio="none" style="width:621px;height:118px;" version="1.1" viewBox="0 0 621 118" width="621px" zoomAndPan="magnify"><defs><filter height="300%" id="f1w9j4yowmcj70" width="300%" x="-1" y="-1"><feGaussianBlur result="blurOut" stdDeviation="2.0"/><feColorMatrix in="blurOut" result="blurOut2" type="matrix" values="0 0 0 0 0 0 0 0 0 0 0 0 0 0 0 0 0 0 .4 0"/><feOffset dx="4.0" dy="4.0" in="blurOut2" result="blurOut3"/><feBlend in="SourceGraphic" in2="blurOut3" mode="normal"/></filter></defs><g><line style="stroke: #A80036; stroke-width: 1.0; stroke-dasharray: 5.0,5.0;" x1="53" x2="53" y1="86.2969" y2="106.2969"/><line style="stroke: #A80036; stroke-width: 1.0; stroke-dasharray: 5.0,5.0;" x1="128" x2="128" y1="86.2969" y2="106.2969"/><line style="stroke: #A80036; stroke-width: 1.0; stroke-dasharray: 5.0,5.0;" x1="194" x2="194" y1="86.2969" y2="106.2969"/><line style="stroke: #A80036; stroke-width: 1.0; stroke-dasharray: 5.0,5.0;" x1="267" x2="267" y1="86.2969" y2="106.2969"/><line style="stroke: #A80036; stroke-width: 1.0; stroke-dasharray: 5.0,5.0;" x1="326" x2="326" y1="86.2969" y2="106.2969"/><line style="stroke: #A80036; stroke-width: 1.0; stroke-dasharray: 5.0,5.0;" x1="393" x2="393" y1="86.2969" y2="106.2969"/><line style="stroke: #A80036; stroke-width: 1.0; stroke-dasharray: 5.0,5.0;" x1="486" x2="486" y1="86.2969" y2="106.2969"/><line style="stroke: #A80036; stroke-width: 1.0; stroke-dasharray: 5.0,5.0;" x1="576" x2="576" y1="86.2969" y2="106.2969"/><rect fill="#FEFECE" filter="url(#f1w9j4yowmcj70)" height="30.2969" style="stroke: #A80036; stroke-width: 1.5;" width="86" x="8" y="51"/><text fill="#000000" font-family="sans-serif" font-size="14" lengthAdjust="spacingAndGlyphs" textLength="72" x="15" y="70.9951">participant</text><text fill="#000000" font-family="sans-serif" font-size="14" lengthAdjust="spacingAndGlyphs" textLength="35" x="108" y="82.9951">actor</text><ellipse cx="128.5" cy="13" fill="#FEFECE" filter="url(#f1w9j4yowmcj70)" rx="8" ry="8" style="stroke: #A80036; stroke-width: 2.0;"/><path d="M128.5,21 L128.5,48 M115.5,29 L141.5,29 M128.5,48 L115.5,63 M128.5,48 L141.5,63 " fill="none" filter="url(#f1w9j4yowmcj70)" style="stroke: #A80036; stroke-width: 2.0;"/><text fill="#000000" font-family="sans-serif" font-size="14" lengthAdjust="spacingAndGlyphs" textLength="65" x="159" y="82.9951">boundary</text><path d="M174,42 L174,66 M174,54 L191,54 " fill="none" filter="url(#f1w9j4yowmcj70)" style="stroke: #A80036; stroke-width: 2.0;"/><ellipse cx="203" cy="54" fill="#FEFECE" filter="url(#f1w9j4yowmcj70)" rx="12" ry="12" style="stroke: #A80036; stroke-width: 2.0;"/><text fill="#000000" font-family="sans-serif" font-size="14" lengthAdjust="spacingAndGlyphs" textLength="48" x="240" y="82.9951">control</text><ellipse cx="267" cy="54" fill="#FEFECE" filter="url(#f1w9j4yowmcj70)" rx="12" ry="12" style="stroke: #A80036; stroke-width: 2.0;"/><polygon fill="#A80036" points="263,42,269,37,267,42,269,47,263,42" style="stroke: #A80036; stroke-width: 1.0;"/><text fill="#000000" font-family="sans-serif" font-size="14" lengthAdjust="spacingAndGlyphs" textLength="38" x="304" y="82.9951">entity</text><ellipse cx="326" cy="54" fill="#FEFECE" filter="url(#f1w9j4yowmcj70)" rx="12" ry="12" style="stroke: #A80036; stroke-width: 2.0;"/><line style="stroke: #A80036; stroke-width: 2.0;" x1="314" x2="338" y1="68" y2="68"/><text fill="#000000" font-family="sans-serif" font-size="14" lengthAdjust="spacingAndGlyphs" textLength="64" x="358" y="82.9951">database</text><path d="M375,34 C375,24 393,24 393,24 C393,24 411,24 411,34 L411,60 C411,70 393,70 393,70 C393,70 375,70 375,60 L375,34 " fill="#FEFECE" filter="url(#f1w9j4yowmcj70)" style="stroke: #000000; stroke-width: 1.5;"/><path d="M375,34 C375,44 393,44 393,44 C393,44 411,44 411,34 " fill="none" style="stroke: #000000; stroke-width: 1.5;"/><rect fill="#FEFECE" filter="url(#f1w9j4yowmcj70)" height="30.2969" style="stroke: #A80036; stroke-width: 1.5;" width="88" x="442" y="47"/><rect fill="#FEFECE" filter="url(#f1w9j4yowmcj70)" height="30.2969" style="stroke: #A80036; stroke-width: 1.5;" width="88" x="438" y="51"/><text fill="#000000" font-family="sans-serif" font-size="14" lengthAdjust="spacingAndGlyphs" textLength="74" x="445" y="70.9951">collections</text><path d="M549,60 L604,60 C609,60 609,73.1484 609,73.1484 C609,73.1484 609,86.2969 604,86.2969 L549,86.2969 C544,86.2969 544,73.1484 544,73.1484 C544,73.1484 544,60 549,60 " fill="#FEFECE" filter="url(#f1w9j4yowmcj70)" style="stroke: #A80036; stroke-width: 2.0;"/><path d="M604,60 C599,60 599,73.1484 599,73.1484 C599,86.2969 604,86.2969 604,86.2969 " fill="none" style="stroke: #A80036; stroke-width: 2.0;"/><text fill="#000000" font-family="sans-serif" font-size="14" lengthAdjust="spacingAndGlyphs" textLength="45" x="549" y="77.9951">queue</text><!--MD5=[581a1a098493dfda338984a1dadb9492]
@startuml

hide footbox

participant participant as Foo
actor       actor       as Foo1
boundary    boundary    as Foo2
control     control     as Foo3
entity      entity      as Foo4
database    database    as Foo5
collections collections as Foo6
queue       queue       as Foo7
@enduml

PlantUML version 1.2020.12(Sat Jun 06 12:54:15 CEST 2020)
(GPL source distribution)
Java Runtime: OpenJDK Runtime Environment
JVM: OpenJDK 64-Bit Server VM
Default Encoding: UTF-8
Language: de
Country: DE
--></g></svg>