<?xml version="1.0" encoding="UTF-8" standalone="no"?><svg xmlns="http://www.w3.org/2000/svg" xmlns:xlink="http://www.w3.org/1999/xlink" contentScriptType="application/ecmascript" contentStyleType="text/css" height="165px" preserveAspectRatio="none" style="width:371px;height:165px;" version="1.1" viewBox="0 0 371 165" width="371px" zoomAndPan="magnify"><defs><filter height="300%" id="fcokbwx6ting6" width="300%" x="-1" y="-1"><feGaussianBlur result="blurOut" stdDeviation="2.0"/><feColorMatrix in="blurOut" result="blurOut2" type="matrix" values="0 0 0 0 0 0 0 0 0 0 0 0 0 0 0 0 0 0 .4 0"/><feOffset dx="4.0" dy="4.0" in="blurOut2" result="blurOut3"/><feBlend in="SourceGraphic" in2="blurOut3" mode="normal"/></filter></defs><g><!--MD5=[f5709ac6b547036e3489c5250f39c28c]
entity Erste Komponente--><rect fill="#FEFECE" filter="url(#fcokbwx6ting6)" height="36.2969" style="stroke: #A80036; stroke-width: 1.5;" width="150" x="11" y="6"/><rect fill="#FEFECE" height="5" style="stroke: #A80036; stroke-width: 1.5;" width="10" x="6" y="11"/><rect fill="#FEFECE" height="5" style="stroke: #A80036; stroke-width: 1.5;" width="10" x="6" y="32.2969"/><text fill="#000000" font-family="sans-serif" font-size="14" lengthAdjust="spacingAndGlyphs" textLength="130" x="21" y="28.9951">Erste Komponente</text><!--MD5=[fcc35125a50bf27f0a58c916e8462e43]
entity Comp2--><rect fill="#FEFECE" filter="url(#fcokbwx6ting6)" height="36.2969" style="stroke: #A80036; stroke-width: 1.5;" width="164" x="196" y="6"/><rect fill="#FEFECE" height="5" style="stroke: #A80036; stroke-width: 1.5;" width="10" x="191" y="11"/><rect fill="#FEFECE" height="5" style="stroke: #A80036; stroke-width: 1.5;" width="10" x="191" y="32.2969"/><text fill="#000000" font-family="sans-serif" font-size="14" lengthAdjust="spacingAndGlyphs" textLength="144" x="206" y="28.9951">Andere Komponente</text><!--MD5=[99ef4bc05d5a915b836f531a99206dc2]
entity Comp3--><rect fill="#FEFECE" filter="url(#fcokbwx6ting6)" height="36.2969" style="stroke: #A80036; stroke-width: 1.5;" width="70" x="51" y="110.5"/><rect fill="#FEFECE" height="5" style="stroke: #A80036; stroke-width: 1.5;" width="10" x="46" y="115.5"/><rect fill="#FEFECE" height="5" style="stroke: #A80036; stroke-width: 1.5;" width="10" x="46" y="136.7969"/><text fill="#000000" font-family="sans-serif" font-size="14" lengthAdjust="spacingAndGlyphs" textLength="50" x="61" y="133.4951">Comp3</text><!--MD5=[9cfae8aaee43ceeb6127c652bd5114d8]
entity Comp4--><rect fill="#FEFECE" filter="url(#fcokbwx6ting6)" height="52.5938" style="stroke: #A80036; stroke-width: 1.5;" width="110" x="156" y="102"/><rect fill="#FEFECE" height="5" style="stroke: #A80036; stroke-width: 1.5;" width="10" x="151" y="107"/><rect fill="#FEFECE" height="5" style="stroke: #A80036; stroke-width: 1.5;" width="10" x="151" y="144.5938"/><text fill="#000000" font-family="sans-serif" font-size="14" lengthAdjust="spacingAndGlyphs" textLength="43" x="166" y="124.9951">Letzte</text><text fill="#000000" font-family="sans-serif" font-size="14" lengthAdjust="spacingAndGlyphs" textLength="90" x="166" y="141.292">Komponente</text><!--MD5=[101ef6a4041ce0c41488f0050ebe5b9b]
link Erste Komponente to Comp2--><!--MD5=[86f6f07849973d8f932982059b30a305]
link Erste Komponente to Comp3--><!--MD5=[a5b5cda61af7c63958dc6d1d7b2a4723]
link Comp3 to Comp4--><!--MD5=[907ae742f593a795eb16d3aaf51f3724]
@startuml
[Erste Komponente]
[Andere Komponente] as Comp2
component Comp3
component [Letzte\nKomponente] as Comp4
@enduml

PlantUML version 1.2020.12(Sat Jun 06 12:54:15 CEST 2020)
(GPL source distribution)
Java Runtime: OpenJDK Runtime Environment
JVM: OpenJDK 64-Bit Server VM
Default Encoding: UTF-8
Language: de
Country: DE
--></g></svg>