<?xml version="1.0" encoding="UTF-8" standalone="no"?><svg xmlns="http://www.w3.org/2000/svg" xmlns:xlink="http://www.w3.org/1999/xlink" contentScriptType="application/ecmascript" contentStyleType="text/css" height="341px" preserveAspectRatio="none" style="width:451px;height:341px;" version="1.1" viewBox="0 0 451 341" width="451px" zoomAndPan="magnify"><defs><filter height="300%" id="f1410xfd5my0lc" width="300%" x="-1" y="-1"><feGaussianBlur result="blurOut" stdDeviation="2.0"/><feColorMatrix in="blurOut" result="blurOut2" type="matrix" values="0 0 0 0 0 0 0 0 0 0 0 0 0 0 0 0 0 0 .4 0"/><feOffset dx="4.0" dy="4.0" in="blurOut2" result="blurOut3"/><feBlend in="SourceGraphic" in2="blurOut3" mode="normal"/></filter></defs><g><!--MD5=[2e3bbbca68bf70c2d738b8a615159118]
cluster Zato-Cluster--><polygon fill="#FFFF00" filter="url(#f1410xfd5my0lc)" points="16,16,26,6,191,6,191,231,181,241,16,241,16,16" style="stroke: #000000; stroke-width: 1.5;"/><line style="stroke: #000000; stroke-width: 1.5;" x1="181" x2="190" y1="16" y2="7"/><line style="stroke: #000000; stroke-width: 1.5;" x1="16" x2="181" y1="16" y2="16"/><line style="stroke: #000000; stroke-width: 1.5;" x1="181" x2="181" y1="16" y2="241"/><text fill="#000000" font-family="sans-serif" font-size="14" font-weight="bold" lengthAdjust="spacingAndGlyphs" textLength="99" x="50" y="31.9951">Zato-Cluster</text><!--MD5=[9cf161141d915aa24a92491ed5b1d9fb]
entity Balancer--><rect fill="#FEFECE" filter="url(#f1410xfd5my0lc)" height="36.2969" style="stroke: #A80036; stroke-width: 1.5;" width="119" x="43.5" y="38"/><rect fill="#FEFECE" height="5" style="stroke: #A80036; stroke-width: 1.5;" width="10" x="38.5" y="43"/><rect fill="#FEFECE" height="5" style="stroke: #A80036; stroke-width: 1.5;" width="10" x="38.5" y="64.2969"/><text fill="#000000" font-family="sans-serif" font-size="14" lengthAdjust="spacingAndGlyphs" textLength="99" x="53.5" y="60.9951">Load-Balander</text><!--MD5=[b1435b213846e3ddcd1e6c1cd6b83b9a]
entity Server--><rect fill="#FEFECE" filter="url(#f1410xfd5my0lc)" height="36.2969" style="stroke: #A80036; stroke-width: 1.5;" width="118" x="44" y="197"/><rect fill="#FEFECE" height="5" style="stroke: #A80036; stroke-width: 1.5;" width="10" x="39" y="202"/><rect fill="#FEFECE" height="5" style="stroke: #A80036; stroke-width: 1.5;" width="10" x="39" y="223.2969"/><text fill="#000000" font-family="sans-serif" font-size="14" lengthAdjust="spacingAndGlyphs" textLength="98" x="54" y="219.9951">diverse Server</text><!--MD5=[0ba5ee7700168656dc1b457c6fe9fdac]
entity Client--><rect fill="#FEFECE" filter="url(#f1410xfd5my0lc)" height="36.2969" style="stroke: #A80036; stroke-width: 1.5;" width="139" x="301.5" y="38"/><rect fill="#FEFECE" height="5" style="stroke: #A80036; stroke-width: 1.5;" width="10" x="296.5" y="43"/><rect fill="#FEFECE" height="5" style="stroke: #A80036; stroke-width: 1.5;" width="10" x="296.5" y="64.2969"/><text fill="#000000" font-family="sans-serif" font-size="14" lengthAdjust="spacingAndGlyphs" textLength="119" x="311.5" y="60.9951">Client-Applikation</text><!--MD5=[ba77cd6e63ca6d532a21379b608a7939]
entity Extern--><rect fill="#FEFECE" filter="url(#f1410xfd5my0lc)" height="36.2969" style="stroke: #A80036; stroke-width: 1.5;" width="152" x="27" y="294"/><rect fill="#FEFECE" height="5" style="stroke: #A80036; stroke-width: 1.5;" width="10" x="22" y="299"/><rect fill="#FEFECE" height="5" style="stroke: #A80036; stroke-width: 1.5;" width="10" x="22" y="320.2969"/><text fill="#000000" font-family="sans-serif" font-size="14" lengthAdjust="spacingAndGlyphs" textLength="132" x="37" y="316.9951">Externe Applikation</text><!--MD5=[bb5aefee5db7915fa5f86d7d38874b81]
link Balancer to Server--><path d="M103,74.2393 C103,103.2326 103,159.808 103,191.6969 " fill="none" id="Balancer-&gt;Server" style="stroke: #A80036; stroke-width: 1.0;"/><polygon fill="#A80036" points="103,196.9734,107,187.9734,103,191.9734,99,187.9734,103,196.9734" style="stroke: #A80036; stroke-width: 1.0;"/><!--MD5=[195183cbdd44b1c06c966f78fc64efa9]
reverse link Balancer to Client--><path d="M168.1737,56 C208.5163,56 260.2833,56 301.4208,56 " fill="none" id="Balancer&lt;-Client" style="stroke: #A80036; stroke-width: 1.0;"/><polygon fill="#A80036" points="162.8109,56,171.8109,60,167.8109,56,171.8109,52,162.8109,56" style="stroke: #A80036; stroke-width: 1.0;"/><text fill="#000000" font-family="sans-serif" font-size="13" lengthAdjust="spacingAndGlyphs" textLength="52" x="206" y="34.0669">SSL/TSL</text><text fill="#000000" font-family="sans-serif" font-size="13" lengthAdjust="spacingAndGlyphs" textLength="98" x="185" y="49.1997">Client Zertifikat</text><!--MD5=[39b0e29e2c763e43f504b449493ef2e6]
link Server to Extern--><path d="M103,233.245 C103,248.9612 103,271.7346 103,288.7539 " fill="none" id="Server-&gt;Extern" style="stroke: #A80036; stroke-width: 1.0;"/><polygon fill="#A80036" points="103,293.8369,107,284.8369,103,288.8369,99,284.8369,103,293.8369" style="stroke: #A80036; stroke-width: 1.0;"/><!--MD5=[5a6cbbae94d793507fb8ca64f80ba796]
@startuml


skinparam node {
backgroundColor Yellow
}


[Client-Applikation] as Client
[Externe Applikation] as Extern

node "Zato-Cluster" {

  [Load-Balander] as Balancer

  [diverse Server] as Server

  Balancer - -> Server
}

Client -left-> Balancer : SSL/TSL\n Client Zertifikat
Server - -> Extern



@enduml

PlantUML version 1.2020.12(Sat Jun 06 12:54:15 CEST 2020)
(GPL source distribution)
Java Runtime: OpenJDK Runtime Environment
JVM: OpenJDK 64-Bit Server VM
Default Encoding: UTF-8
Language: de
Country: DE
--></g></svg>